[
  {
    "Id": "MarketId_0",
    "Name": "MarketName_0",
    "SetItemIds" :
    [
	"SetId_0",
	"SetId_1",
	"SetId_2"
    ]
  },
  {
    "Id": "MarketId_1",
    "Name": "MarketName_1",
    "SetItemIds" :
    [
      "SetId_2"
    ]
  }
]